{
"version": 0,
"features": {
"autorunAfterLogin": {
"enabled": true,
"scope": "allLocalUsers"
},
"checkForUpdates": {
"enabled": false
},
"cloudSettingsTransfer": {
"enabled": true
},
"resetSettings": {
"enabled": true
}
},
"morphicBar": {
"visibilityAfterLogin": "show",
"extraItems": [
{
"type": "link",
"label": "My\nEmail",
"tooltipHeader": "Opens Gmail",
"tooltipText": "Opens whichever Gmail account you are signed into.",
"url": "https://mail.umich.edu/"
},
{
"type": "link",
"label": "My\nCanvas",
"tooltipHeader": "Opens your Canvas account",
"tooltipText": "Opens directly if already signed in.",
"url": "https://canvas.it.umich.edu/"
},
{
"type": "link",
"label": "MPrint\nService",
"tooltipHeader": "Opens online print service",
"tooltipText": "Opens University of Michigan's online print service.",
"url": "https://mprint.umich.edu/"
}
]
},
    "telemetry": {
        "siteId": "umich"
    }
}
